ID,Alter,Laufzeit,Puls,Max-Puls,Gewicht,Sauerstoff,Lower 95% Mean Sauerstoff,Upper 95% Mean Sauerstoff
1,35,"25,7",178,193,63,"21,9","19,91417278","21,433520652"
2,31,"27,1",182,208,76,"22,1","19,554726869","21,180658054"
3,36,"27,2",167,188,80,20,"19,759698716","21,335749122"
4,43,28,156,174,65,"20,1","19,22199802","21,05325449"
5,42,"28,1",193,207,76,"18,1","17,746226397","19,418068834"
6,31,29,191,201,84,"18,3","18,548946887","20,094636513"
7,42,"29,5",200,210,71,"17,9","16,857388442","18,733545634"
8,45,"30,3",175,186,71,"16,7","17,798430607","18,889796023"
9,50,"31,2",158,174,54,"18,6","17,415830425","19,255087549"
10,44,"31,4",173,188,72,"17,2","17,664893376","18,61428752"
11,33,"31,6",199,207,70,"16,7","17,141726514","18,66454041"
12,42,"31,7",180,188,68,"18,5","17,527741714","18,286176082"
13,37,"31,8",180,188,68,"18,6","17,870230183","18,750037343"
14,41,"32,2",173,184,86,"17,2","17,690350577","18,562716438"
15,47,"32,5",178,191,78,"19,1","16,718983434","17,842304451"
16,45,"32,9",200,210,68,"16,8","15,458239915","17,264646393"
17,45,33,182,193,77,"17,5","16,638139152","17,580914384"
18,40,"33,3",173,184,74,"17,4","17,359661974","18,310461991"
19,36,"34,1",173,191,76,"18,1","17,227227029","18,591834724"
20,44,"34,4",180,193,64,15,"16,389563811","17,213718159"
21,44,"34,8",184,193,62,"16,6","16,048065262","16,931787635"
22,38,"34,9",189,197,61,"16,5","16,287232089","17,239278918"
23,47,"35,1",167,185,74,17,"16,197010543","17,529088699"
24,37,"35,7",191,204,84,"16,4","15,92917847","17,047218004"
25,41,"36,1",182,197,56,"17,6","15,936107951","16,846985327"
26,40,"36,5",189,197,72,"16,5","15,523821233","16,550048666"
27,33,"37,5",189,201,70,"16,8","15,462158251","17,147987218"
28,50,"39,7",186,197,68,"14,5","13,324847004","15,054276643"
29,47,"40,5",180,193,86,"14,4","13,637560606","15,237141106"
30,37,"41,1",186,197,76,"14,5","13,896431956","15,793642828"
,34,38,195,,,,"14,95145522","16,617403581"
